62 61 0.5
65 63 0.53846157
67 61 0.5
67 63 0.54545456
75 73 0.6111111
82 81 0.8235294
84 83 0.8333333
86 85 0.8
88 87 0.8
90 89 0.7647059
92 91 0.78571427
94 93 0.7222222
96 95 0.71428573
98 97 0.84210527
